0 PIN_FLD_POID           POID [0] 0.0.0.1 /profile/collections_params -1 0
0 PIN_FLD_ACCOUNT_OBJ    POID [0] 0.0.0.1 /account 0
0     PIN_FLD_INHERITED_INFO SUBSTRUCT [0] allocated 20, used 7
1    	 PIN_FLD_COLLECTIONS_PARAMS ARRAY [0] allocated 20, used 7
2     PIN_FLD_BILLINFO_OBJ   POID [0] 0.0.0.1 /billinfo 0